<?xml version="1.0" standalone="yes"?>
<svg xmlns="http://www.w3.org/2000/svg" width="1024" height="1024">
<path style="fill:#151515; stroke:none;" d="M255 840C244.187 840.223 229.568 842.285 220 847.518C209.053 853.505 201.296 864.081 195.756 875C186.344 893.55 181.101 914.561 177.754 935C175.889 946.387 174.996 957.474 175 969C175.003 975.952 175.456 982.738 182.04 986.772C186.542 989.529 191.946 989 197 989L222 989L322 989L693 989L803 989L828 989C833.596 989 839.266 989.312 843.812 985.442C851.441 978.947 849.354 964.992 848.961 956C847.745 928.243 840.088 896.385 826.688 872C822.829 864.977 818.017 858.503 812 853.184C808.605 850.183 803.985 848.191 805.855 842.996C812.145 825.524 822.927 808.914 830.691 792C844.618 761.662 856.651 729.964 866.28 698C911.692 547.253 916.391 362.561 805.166 238C789.466 220.418 771.62 205.081 752 192C718.449 169.63 682.463 155.692 643 147.8C612.785 141.758 582.725 140 552 140C536.443 140 520.344 139.151 505 142C505 113.407 497.448 88.5059 480.856 65C474.04 55.3447 467.628 43.3893 454 45.1883C440.988 46.906 431.736 64.4303 424.63 74C410.586 92.9127 397.919 113.042 385.424 133C378.929 143.375 373.176 155.461 365.39 164.895C360.654 170.635 351.503 172.973 345 176.248C334.09 181.741 322.862 188.576 314 197.039C306.078 204.605 299.541 213.097 294.784 223C289.372 234.265 286.244 246.012 276.996 254.961C270.242 261.496 262.049 265.268 254 269.873C245.633 274.659 237.526 280.438 230 286.449C197.28 312.586 167.758 343.219 140.579 375C124.129 394.237 108.198 413.778 94.3441 435C87.8553 444.94 79.9832 456.829 79.0903 469C78.3935 478.497 78.6473 488.682 80.6682 498C89.7684 539.958 131.458 556.442 169 565.873C184.523 569.773 203.952 575.734 220 572.331C246.692 566.67 265.408 541.225 292 535.532C303.725 533.023 316.483 542.21 328 543.711C350.017 546.579 369.484 538.66 388 527.551C413.42 512.299 437.928 494.625 466 484.436C472.741 481.989 479.917 480.693 487 479.73C490.34 479.276 493.505 478.764 495.427 482.148C496.945 484.82 496.916 488.121 497.835 491C502.53 505.712 500.249 518.99 497.199 534C495.678 541.484 494.34 549.606 489.945 556C479.83 570.718 464.154 582.056 450 592.626C434.621 604.11 418.451 614.529 402 624.4C388.949 632.23 375.558 639.234 364 649.289C326.032 682.321 304.846 726.814 282.753 771C271.709 793.087 258.361 815.038 255 840z"/>
<path style="fill:#484848; stroke:none;" d="M362 524C375.506 518.459 386.683 510.095 399 502.424C413.432 493.434 428.354 485.548 443 477C439.87 465.227 446.103 450.189 455.04 442.213C459.674 438.078 465.774 435.28 471 431.946C484.841 423.117 496.865 412.131 509 401.17C516.843 394.086 525.378 386.716 530 377C531.016 381.021 530.053 384.873 530.004 389C529.88 399.355 528.796 409.68 528.089 420C526.699 440.311 526.301 460.689 524.911 481C524.205 491.304 523.001 501.658 523 512C522.999 525.103 521.304 547.192 508 554C505.295 568.026 490.182 579.832 480 588.714C451.431 613.637 418.314 630.57 387 651.356C342.409 680.954 319.835 731.836 296.753 778C287.582 796.343 273.827 816.045 272 837C291.617 836.158 311.438 832.125 331 830.169C370.543 826.215 410.329 822.776 450 821.039C483.394 819.577 517.542 818.574 551 820.039C571.647 820.943 592.309 823 613 823C617.144 801.007 620.88 777.739 629.616 757C633.35 748.135 639.012 739.967 644.333 732C652.858 719.236 661.873 706.675 673 696.039C684.324 685.215 697.663 676.203 710 666.576C725.224 654.695 739.693 642.11 754 629.17C766.646 617.732 780.243 604.646 787.68 589C801.408 560.117 807.182 527.473 811.282 496C819.171 435.44 816.615 374.717 803.424 315C794.927 276.531 780.689 235.612 749.714 209.478C727.509 190.744 697.645 178.237 670 170.291C611.874 153.584 550.715 151.453 491 159C491 140.461 490.326 120.562 483.771 103C477.828 87.0781 467.824 73.6761 458 60C452.595 62.5278 449.235 67.3508 445.651 72C440.36 78.8642 435.18 85.8176 430.33 93C418.291 110.829 406.484 128.769 395.05 147C388.737 157.066 383.192 168.965 375.331 177.892C370.594 183.271 362.277 185.132 356 188.248C344.68 193.867 333.185 200.23 324.001 209.039C307.048 225.301 304.622 249.697 287.999 265.985C273.627 280.069 253.599 287.23 238 300.084C202.496 329.34 171.22 362.911 141.576 398C129.972 411.734 118.906 425.98 109.003 441C103.564 449.249 97.5229 458.36 94.9275 468C90.6929 483.729 96.4299 504.371 106.04 517C115.955 530.03 131.994 537.132 147 542.681C159.474 547.294 173.622 552.934 187 553.91C208.762 555.496 231.402 544.754 248 531.55C260.05 521.964 271.53 510.546 281.715 499C287.278 492.693 294.143 482.638 302.015 479.228C309.987 475.774 317.255 480.11 324 484.204C339.215 493.441 356.072 506.62 362 524z"/>
<path style="fill:#1f1f1f; stroke:none;" d="M756 215C765.224 228.107 775.598 239.346 782.741 254C796.838 282.924 804.601 315.307 809.272 347C816.584 396.619 817.766 445.225 811.282 495C806.768 529.648 801.222 570.993 780.255 600C759.213 629.109 728.081 651.697 700 673.576C690.612 680.89 680.612 687.804 672 696.039C637.565 728.966 616.74 776.68 613 824C630.671 824 648.426 826.13 666 827.83C690.331 830.185 714.764 832.008 739 835.424C750.673 837.07 762.349 838.617 774 840.424C777.761 841.008 784.176 843.511 787.621 841.226C790.783 839.13 792.882 834.171 794.796 831C799.702 822.876 804.006 814.482 808.247 806C824.372 773.749 836.516 740.222 847.67 706C875.432 620.823 887.826 531.128 877.155 442C871.664 396.138 859.259 349.42 836.424 309C821.688 282.916 804.369 258.152 783 237.004C775.261 229.344 766.027 219.469 756 215z"/>
<path style="fill:#151515; stroke:none;" d="M351 312C356.355 310.497 359.83 306.109 364 302.59C370.37 297.216 376.986 292.378 385 289.749C392.186 287.392 400.451 286.2 408 286.015C413.757 285.874 420.847 287.1 426.011 283.98C439.119 276.06 441.161 256.776 440.996 243C440.913 236.066 439.353 227.993 432.96 224.086C427.056 220.478 419.653 220.345 413 219.911C401.213 219.143 385.254 222.371 376.039 230.329C370.262 235.318 367.054 242.288 363.756 249C354.704 267.425 348.411 291.494 351 312z"/>
<path style="fill:#dddddd; stroke:none;" d="M420 285L421 286L420 285z"/>
<path style="fill:#1f1f1f; stroke:none;" d="M530 377C517.544 395.255 498.9 411.447 481 424.29C472.499 430.389 461.728 435.154 454.093 442.213C445.817 449.866 439.101 465.982 443 477C451.564 473.486 460.066 469.949 469 467.428C474.827 465.784 480.974 464.746 487 464.17C495.681 463.34 504.015 464.718 508.583 473.001C510.617 476.689 511.19 480.76 512.419 484.714C517.241 500.232 516.457 515.024 513.576 531C512.196 538.648 509.632 546.263 509 554C520.828 547.478 522.995 527.065 523 515C523.006 498.34 524.773 481.605 525.911 465C526.935 450.043 526.75 434.923 528.17 420C529.149 409.707 529.761 399.341 530.015 389C530.114 384.935 531.565 380.838 530 377z"/>
<path style="fill:#b3b3b3; stroke:none;" d="M451 443L452 444L451 443z"/>
<path style="fill:#1f1f1f; stroke:none;" d="M189 554C193.151 555.995 198.416 556.544 203 556.914C206.909 557.23 211.106 558.128 215 557.521C222.974 556.279 230.208 551.675 237 547.6C252.851 538.09 271.064 522.482 290 520.184C302.728 518.64 314.038 524.461 326 527.522C337.702 530.516 351.253 529.663 362 524C357.836 506.477 339.624 493.082 325 484.204C317.519 479.663 309.808 475.348 301.039 479.228C296.98 481.023 294.051 484.92 290.996 488.001C284.847 494.204 279.18 500.82 273 507C249.43 530.572 224.272 553.272 189 554z"/>
<path style="fill:#b3b3b3; stroke:none;" d="M367 521L368 522L367 521M365 522L366 523L365 522M363 523L364 524L363 523z"/>
<path style="fill:#484848; stroke:none;" d="M190 974L834 974C834 946.574 829.127 918.652 819.189 893C814.767 881.586 808.695 868.904 798 862.133C787.76 855.651 771.73 855.67 760 853.754C728.317 848.577 695.982 845.256 664 842.911C601.644 838.34 539.705 833.478 477 835.015C434.233 836.062 391.657 840.784 349 843.911C320.005 846.037 290.712 849.369 262 854.08C250.819 855.915 235.767 855.95 226 862.133C215.305 868.904 209.233 881.586 204.811 893C194.873 918.652 190 946.574 190 974z"/>
<path style="fill:#ffffff; stroke:none;" d="M790 837L791 838L790 837M789 839L790 840L789 839M787 842L788 843L787 842z"/>
</svg>
