<?xml version="1.0" standalone="yes"?>
<svg xmlns="http://www.w3.org/2000/svg" width="1024" height="1024">
<path style="fill:#151515; stroke:none;" d="M502 140C482.392 140 462.587 139.182 443 140.039C409.43 141.509 375.06 147.101 343 157.344C317.899 165.364 294.919 176.72 273 191.333C255.73 202.847 239.402 215.98 225.039 231C114.59 346.508 110.676 526.072 150.151 672C161.158 712.69 175.718 752.505 192.861 791C200.602 808.382 211.716 825.138 218.145 842.996C220.015 848.191 215.395 850.183 212 853.184C205.983 858.503 201.171 864.977 197.312 872C183.886 896.431 175.698 929.116 175.015 957C174.788 966.26 172.514 979.935 181.094 986.146C185.519 989.348 190.818 989 196 989L223 989L332 989L703 989L802 989L827 989C832.054 989 837.458 989.529 841.96 986.772C848.544 982.738 848.997 975.952 849 969C849.004 957.474 848.111 946.387 846.246 935C842.899 914.561 837.656 893.55 828.244 875C822.704 864.081 814.947 853.505 804 847.518C794.432 842.285 779.813 840.223 769 840C765.6 814.748 752.924 784.76 733 768.329C723.324 760.349 709.204 756.355 698 750.753C677.675 740.59 657.715 728.874 639 715.975C621.74 704.079 604.006 690.99 590.3 675C569.379 650.591 555.359 618.632 543.601 589C534.263 565.467 527.303 541.081 523.729 516C522.33 506.177 523.908 499.297 526.461 490C527.242 487.152 527.222 483.762 529.089 481.319C531.099 478.689 534.134 479.34 537 479.73C544.083 480.693 551.259 481.989 558 484.436C586.072 494.625 610.579 512.299 636 527.551C654.516 538.66 673.984 546.579 696 543.711C707.373 542.229 719.406 533.61 731 535.343C738.327 536.439 745.677 540.962 752 544.579C767.836 553.637 783.247 566.568 801 571.572C816.561 575.957 835.737 570.688 851 566.873C887.926 557.644 928.981 543.719 941.656 504C943.497 498.231 944.695 492.063 944.961 486C945.271 478.919 945.78 470.918 944.1 464C940.211 447.988 928.836 433.174 919.421 420C904.388 398.963 887.58 379.024 870.086 360C845.929 333.732 821.178 307.737 793 285.662C785.742 279.975 778.01 274.455 770 269.873C762.81 265.759 755.244 262.401 749 256.826C738.168 247.156 734.987 234.514 728.73 222C723.98 212.501 717.664 204.358 710 197.039C695.938 183.61 678.272 177.756 662 168.071C639.923 154.932 618.967 139.252 598 124.424C565.896 101.721 533.231 79.8016 501 57.2801C490.853 50.19 475.205 34.3647 462.094 43.8542C452.4 50.8706 455.936 63.5078 461.001 72C474.538 94.6982 489.182 116.89 502 140z"/>
<path style="fill:#484848; stroke:none;" d="M471 56C474.643 68.6218 484.656 80.7604 491.4 92C504.797 114.329 517.632 137.287 532 159C511.225 155.141 490.052 155 469 155C421.72 155 373.193 161.068 329 178.8C313.229 185.128 298.162 193.272 284 202.667C278.094 206.585 271.348 210.346 266.349 215.424C240.863 241.31 228.221 280.385 220.576 315C207.386 374.718 204.829 435.439 212.718 496C216.818 527.472 222.592 560.117 236.32 589C243.757 604.646 257.354 617.732 270 629.17C284.307 642.11 298.776 654.695 314 666.576C326.337 676.203 339.676 685.215 351 696.039C362.127 706.675 371.142 719.236 379.667 732C384.988 739.967 390.65 748.135 394.384 757C403.12 777.739 406.856 801.008 411 823C431.691 823 452.353 820.943 473 820.039C506.459 818.574 540.606 819.577 574 821.039C613.671 822.776 653.457 826.215 693 830.169C712.562 832.125 732.383 836.158 752 837C750.341 817.975 738.513 793.572 723.999 781.213C719.285 777.198 713.574 775.521 708 773.127C701.531 770.349 695.295 766.903 689 763.753C669.306 753.9 650.285 742.249 632 729.999C612.828 717.155 593.383 702.597 578.3 685C559.286 662.816 545.963 634.68 534.579 608C527.355 591.071 518.696 572.321 516 554C500.824 546.234 501.339 521.437 500.985 507C499.923 463.65 494.86 420.324 493 377C506.325 394.276 522.422 409.819 540 422.845C549.371 429.79 561.641 434.982 569.907 443.105C578.177 451.233 584.111 465.563 581 477C597.015 486.347 613.299 494.989 629 504.953C639.608 511.685 649.731 520.465 662 524C667.928 506.62 684.784 493.441 700 484.204C706.745 480.11 714.013 475.774 721.985 479.228C730.285 482.823 737.226 493.431 743.17 500C753.501 511.418 764.827 522.888 777 532.335C793.454 545.104 815.64 555.467 837 553.91C850.378 552.934 864.526 547.294 877 542.681C892.462 536.964 908.735 529.636 918.711 516C927.826 503.54 933.184 483.27 929.073 468C926.272 457.599 919.573 447.859 913.667 439C901.465 420.698 887.467 403.652 873.13 387C864.968 377.519 856.826 367.87 847.999 359C826.636 337.532 806.113 315.448 782 296.887C768.122 286.205 750.803 279.778 738 267.91C719.76 251.002 717.3 225.075 699 208.09C685.509 195.569 668.78 190.176 653.089 181.475C641.266 174.919 630.158 165.666 619 157.974C585.274 134.727 551.726 111.222 518 87.9745C502.541 77.3184 487.409 65.1354 471 56z"/>
<path style="fill:#1f1f1f; stroke:none;" d="M835 97L833 98C834.453 98.5546 835.076 98.6045 835 97M236 843C272.639 835.895 309.919 832.419 347 828.83C368.208 826.778 389.678 824 411 824C407.26 776.68 386.435 728.965 352 696.039C343.388 687.804 333.388 680.89 324 673.576C295.919 651.697 264.787 629.109 243.745 600C222.778 570.994 217.232 529.648 212.718 495C206.234 445.225 207.416 396.619 214.728 347C219.399 315.307 227.162 282.924 241.259 254C247.699 240.787 256.796 229.999 265 218C259.41 219.885 255.309 224.017 251 227.925C243.553 234.68 236.68 241.553 229.925 249C200.408 281.543 178.532 320.404 164.667 362C148.024 411.929 142.706 463.764 143.985 516C146.292 610.139 168.978 705.332 208.309 791C216.539 808.926 226.833 825.595 236 843z"/>
<path style="fill:#151515; stroke:none;" d="M672 311C672.678 291.426 668.498 272.099 660.988 254C657.715 246.11 653.559 237.015 646.91 231.39C638.545 224.315 624.721 221.273 614 221.015C607.693 220.863 600.857 221.349 595.001 223.88C577.967 231.242 583.449 258.967 589.971 272C591.742 275.541 593.945 279.078 597.043 281.606C602.227 285.836 608.74 284.99 615 285C621.948 285.011 629.254 285.752 636 287.478C651.449 291.431 659.596 302.262 672 311z"/>
<path style="fill:#1f1f1f; stroke:none;" d="M493 377C493.895 420.343 499.064 463.688 500.961 507C501.585 521.259 500.223 545.852 515 554C514.368 546.263 511.804 538.648 510.424 531C507.543 515.024 506.759 500.231 511.581 484.714C512.81 480.76 513.383 476.689 515.417 473.001C519.985 464.718 528.319 463.34 537 464.17C543.026 464.746 549.173 465.784 555 467.428C563.934 469.949 572.436 473.486 581 477C584.736 466.442 578.731 452.114 571.671 444.043C568.226 440.105 563.375 437.789 559 435.05C551.803 430.545 544.613 425.884 538 420.539C527.019 411.665 515.905 402.189 506.093 392.039C501.481 387.266 497.868 381.446 493 377z"/>
<path style="fill:#b3b3b3; stroke:none;" d="M572 443L573 444L572 443z"/>
<path style="fill:#373737; stroke:none;" d="M145.333 453.667C145.278 453.722 145.222 454.778 145.667 454.333C145.722 454.278 145.778 453.222 145.333 453.667z"/>
<path style="fill:#151515; stroke:none;" d="M342 454C342.134 470.136 346.934 487.524 359.039 498.826C381.77 520.049 417.244 511.165 430.215 484C434.738 474.527 436 464.369 436 454L422 454C421.585 463.655 419.59 473.873 414.084 482C402.179 499.575 379.632 500.052 366.329 483.999C359.312 475.531 357.007 464.724 357 454L342 454z"/>
<path style="fill:#373737; stroke:none;" d="M144 463L144 468C144.83 465.969 144.83 465.031 144 463M143 477L143 494C144.883 489.514 144.883 481.487 143 477z"/>
<path style="fill:#1f1f1f; stroke:none;" d="M662 524C672.747 529.663 686.298 530.516 698 527.522C710.173 524.407 722.035 518.161 735 520.326C760.919 524.654 779.587 548.254 804 556.251C814.09 559.556 824.764 555.809 835 555C829.794 552.754 823.526 553.192 818 551.87C806.995 549.236 796.499 544.834 787 538.655C769.999 527.596 754.69 512.27 741.424 497C734.421 488.938 725.969 476.899 714 477.549C709.833 477.776 705.545 480.411 702 482.428C693.403 487.321 685.234 493.343 678 500.089C670.889 506.722 664.291 514.36 662 524z"/>
<path style="fill:#373737; stroke:none;" d="M143 510L143 537C145.541 530.945 145.541 516.055 143 510z"/>
<path style="fill:#151515; stroke:none;" d="M261 515C261.134 531.135 265.934 548.524 278.039 559.826C300.77 581.049 336.244 572.165 349.215 545C353.738 535.527 355 525.369 355 515L341 515C340.6 524.303 338.723 534.003 333.728 542C322.572 559.861 299.985 561.572 286.185 545.996C278.566 537.396 276.007 526.192 276 515L261 515z"/>
<path style="fill:#373737; stroke:none;" d="M144 537L145 562C147.012 557.205 145.433 552.011 145.09 547C144.853 543.554 145.347 540.211 144 537z"/>
<path style="fill:#151515; stroke:none;" d="M374 549C374.134 565.135 378.934 582.524 391.039 593.826C413.77 615.049 449.244 606.165 462.215 579C466.738 569.527 468 559.369 468 549L454 549C453.6 558.303 451.723 568.003 446.728 576C435.572 593.861 412.985 595.572 399.185 579.996C391.566 571.396 389.007 560.192 389 549L374 549z"/>
<path style="fill:#373737; stroke:none;" d="M146 562L146 571C147.256 568.006 147.256 564.994 146 562M147 571L148 587C149.861 582.554 148.854 575.377 147 571M149 587L150 600C151.653 596.024 150.735 590.865 149 587M151 600L151 606C151.951 603.715 151.951 602.285 151 600M152 606L152 612C152.951 609.715 152.951 608.285 152 606z"/>
<path style="fill:#151515; stroke:none;" d="M313 611C313.134 627.135 317.934 644.524 330.039 655.826C352.77 677.049 388.244 668.165 401.215 641C405.738 631.527 407 621.369 407 611L393 611C392.6 620.303 390.723 630.003 385.728 638C374.572 655.861 351.985 657.572 338.185 641.996C330.566 633.396 328.007 622.192 328 611L313 611z"/>
<path style="fill:#373737; stroke:none;" d="M153 612L153 617C153.83 614.969 153.83 614.03 153 612M154 617L154 622C154.83 619.97 154.83 619.03 154 617M155 623L155 627C155.71 625.24 155.71 624.76 155 623M156 628L156 632C156.71 630.24 156.71 629.76 156 628z"/>
<path style="fill:#151515; stroke:none;" d="M430 632C430.134 648.135 434.934 665.524 447.039 676.826C469.77 698.049 505.244 689.165 518.215 662C522.738 652.527 524 642.369 524 632L510 632C509.585 641.655 507.59 651.873 502.084 660C490.179 677.575 467.632 678.052 454.329 661.999C447.312 653.532 445.007 642.724 445 632L430 632z"/>
<path style="fill:#373737; stroke:none;" d="M157 633L157 636C157.696 634.446 157.696 634.554 157 633M158 638L158 641C158.696 639.446 158.696 639.554 158 638M159 642L159 645C159.696 643.446 159.696 643.554 159 642M160.333 647.667C160.278 647.722 160.222 648.778 160.667 648.333C160.722 648.278 160.778 647.222 160.333 647.667M161.333 651.667C161.278 651.722 161.222 652.778 161.667 652.333C161.722 652.278 161.778 651.222 161.333 651.667M162.333 655.667C162.278 655.722 162.222 656.778 162.667 656.333C162.722 656.278 162.778 655.222 162.333 655.667M163.333 659.667C163.278 659.722 163.222 660.778 163.667 660.333C163.722 660.278 163.778 659.222 163.333 659.667z"/>
<path style="fill:#151515; stroke:none;" d="M382 702C382.134 718.135 386.934 735.524 399.039 746.826C421.77 768.049 457.244 759.165 470.215 732C474.738 722.527 476 712.369 476 702L462 702C461.6 711.303 459.723 721.003 454.728 729C443.572 746.861 420.985 748.572 407.185 732.996C399.566 724.396 397.007 713.192 397 702L382 702M496 734C496.134 750.135 500.934 767.524 513.039 778.826C535.77 800.049 571.244 791.165 584.215 764C588.738 754.527 590 744.369 590 734L576 734C575.601 743.303 573.723 753.003 568.728 761C557.572 778.861 534.985 780.572 521.185 764.996C513.566 756.396 511.007 745.192 511 734L496 734z"/>
<path style="fill:#484848; stroke:none;" d="M190 974L834 974C834 946.574 829.127 918.652 819.189 893C814.767 881.586 808.695 868.904 798 862.133C787.76 855.651 771.73 855.67 760 853.754C728.317 848.577 695.982 845.256 664 842.911C601.644 838.34 539.705 833.478 477 835.015C434.233 836.062 391.657 840.784 349 843.911C320.005 846.037 290.712 849.369 262 854.08C250.819 855.915 235.767 855.95 226 862.133C215.305 868.904 209.233 881.586 204.811 893C194.873 918.652 190 946.574 190 974z"/>
</svg>
